dataproc_dv/dataproc.vcd
$date
	Mon Feb 09 18:34:15 2026
$end
$version
	Icarus Verilog
$end
$timescale
	1ps
$end
$scope module dataproc_tb $end
$var wire 1 ! resetn $end
$var reg 1 " clk $end
$var reg 6 # reset_cnt [5:0] $end
$scope module uut $end
$var wire 1 " clk $end
$var wire 8 $ in_data [7:0] $end
$var wire 1 % in_ready $end
$var wire 1 & in_valid $end
$var wire 2 ' mode [1:0] $end
$var wire 1 ( out_ready $end
$var wire 1 ! rstn $end
$var reg 8 ) out_data [7:0] $end
$var reg 1 * out_valid $end
$upscope $end
$upscope $end
$enddefinitions $end
$comment Show the parameter values. $end
$dumpall
$end
#0
$dumpvars
x*
bx )
1(
b0 '
0&
1%
b0 $
b0 #
x"
0!
$end
#5000
0"
#10000
b0 )
0*
b1 #
1"
#15000
0"
#20000
b10 #
1"
#25000
0"
#30000
b11 #
1"
#35000
0"
#40000
b100 #
1"
#45000
0"
#50000
b101 #
1"
#55000
0"
#60000
b110 #
1"
#65000
0"
#70000
b111 #
1"
#75000
0"
#80000
b1000 #
1"
#85000
0"
#90000
b1001 #
1"
#95000
0"
#100000
b1010 #
1"
#105000
0"
#110000
b1011 #
1"
#115000
0"
#120000
b1100 #
1"
#125000
0"
#130000
b1101 #
1"
#135000
0"
#140000
b1110 #
1"
#145000
0"
#150000
b1111 #
1"
#155000
0"
#160000
b10000 #
1"
#165000
0"
#170000
b10001 #
1"
#175000
0"
#180000
b10010 #
1"
#185000
0"
#190000
b10011 #
1"
#195000
0"
#200000
b10100 #
1"
#205000
0"
#210000
b10101 #
1"
#215000
0"
#220000
b10110 #
1"
#225000
0"
#230000
b10111 #
1"
#235000
0"
#240000
b11000 #
1"
#245000
0"
#250000
b11001 #
1"
#255000
0"
#260000
b11010 #
1"
#265000
0"
#270000
b11011 #
1"
#275000
0"
#280000
b11100 #
1"
#285000
0"
#290000
b11101 #
1"
#295000
0"
#300000
b11110 #
1"
#305000
0"
#310000
b11111 #
1"
#315000
0"
#320000
b100000 #
1"
#325000
0"
#330000
b100001 #
1"
#335000
0"
#340000
b100010 #
1"
#345000
0"
#350000
b100011 #
1"
#355000
0"
#360000
b100100 #
1"
#365000
0"
#370000
b100101 #
1"
#375000
0"
#380000
b100110 #
1"
#385000
0"
#390000
b100111 #
1"
#395000
0"
#400000
b101000 #
1"
#405000
0"
#410000
b101001 #
1"
#415000
0"
#420000
b101010 #
1"
#425000
0"
#430000
b101011 #
1"
#435000
0"
#440000
b101100 #
1"
#445000
0"
#450000
b101101 #
1"
#455000
0"
#460000
b101110 #
1"
#465000
0"
#470000
b101111 #
1"
#475000
0"
#480000
b110000 #
1"
#485000
0"
#490000
b110001 #
1"
#495000
0"
#500000
b110010 #
1"
#505000
0"
#510000
b110011 #
1"
#515000
0"
#520000
b110100 #
1"
#525000
0"
#530000
b110101 #
1"
#535000
0"
#540000
b110110 #
1"
#545000
0"
#550000
b110111 #
1"
#555000
0"
#560000
b111000 #
1"
#565000
0"
#570000
b111001 #
1"
#575000
0"
#580000
b111010 #
1"
#585000
0"
#590000
b111011 #
1"
#595000
0"
#600000
b111100 #
1"
#605000
0"
#610000
b111101 #
1"
#615000
0"
#620000
b111110 #
1"
#625000
0"
#630000
1!
b111111 #
1"
